{
  "type": "battle",
  "battle": {
    "redDancer": {
      "id": 4,
      "username": "dancer1",
      "first_name": "",
      "last_name": "",
      "groups": [],
      "user_permissions": []
    },
    "blueDancer": {
      "id": 5,
      "username": "dancer2",
      "first_name": "",
      "last_name": "",
      "groups": [],
      "user_permissions": []
    },
    "stage": "1/16",
    "votes": [
      {
        "judgeId": 1,
        "judgeName": "first",
        "dancerId": 5
      },
      {
        "judgeId": 12,
        "judgeName": "second",
        "dancerId": 5
      }
    ],
    "result": 5
  },
  "event": {
    "model": "tournaments.event",
    "pk": 1,
    "created": "2020-05-03T12:44:26.205Z",
    "updated": "2020-05-03T12:44:26.205Z",
    "name": "event1",
    "tournament": 1,
    "start": "2020-05-03T12:43:32Z",
    "end": "2020-05-03T12:43:35Z",
    "type": 1,
    "judges": [
      {
        "username": "first",
        "id": 1
      },
      {
        "username": "second",
        "id": 12
      }
    ]
  }
}